…
Now we’ll work with another data set that provides information on heigt
and weight.

- df.heightweight is an object of type tibble
- it has 236 observations and 5 variables
- variables have different types themselves,which constrain how we can
  visualize them effectively

``` r
df.heightweight <- read_csv(here('_data','heightweight.csv'))
df.heightweight
```

    # A tibble: 236 × 5
       sex   ageYear ageMonth heightIn weightLb
       <chr>   <dbl>    <dbl>    <dbl>    <dbl>
     1 f        11.9      143     56.3     85  
     2 f        12.9      155     62.3    105  
     3 f        12.8      153     63.3    108  
     4 f        13.4      161     59       92  
     5 f        15.9      191     62.5    112. 
     6 f        14.2      171     62.5    112  
     7 f        15.4      185     59      104  
     8 f        11.8      142     56.5     69  
     9 f        13.3      160     62       94.5
    10 f        11.7      140     53.8     68.5
    # ℹ 226 more rows
…
